{
    "quiz":[
    {
        "index":"1",
        "question_type":"text",
        "question":"What is your name?",
        "options":null
    },
    {
        "index":"2",
        "question_type":"checkbox",
        "question":"What is your hobbies?",
        "options":
        [
            "Dancing",
            "Singing",
            "Reading"
        ]
    },
    {
        "index":"3",
        "question_type":"radio",
        "question":"What is your gender?",
        "options":
        [
            "male",
            "female"
        ]
    },
    {
        "index":"4",
        "question_type":"dropdown_menu",
        "question":"What is your favourite color?",
        "options":
        [
            "Red",
            "Blue",
            "Pink",
            "Black",
            "Green",
            "Yellow"
        ]
    }
]
}