{
  "firstname": "Meet ",
  "lastname": "Aghera",
  "contact_no": "",
  "gender": "male",
  "birth_date": "18January2004",
  "address": "porbandar",
  "launguage": "English",
  "educational_Information": [
    {
      "10th%": "80",
      "12th%": "60",
      "college_name": "CSPIT",
      "degree": "B.TECH"
    }
  ]
}