[
  {
    "index": 1,
    "q_type": "text",
    "question_text": "What is your name?",
    "options": null,
    "is_extra": false,
    "label_for_extra": null
  },
  {
    "index": 2,
    "q_type": "radio",
    "question_text": "What is your gender?",
    "options": [
      "male",
      "female",
      "others"
    ],
    "is_extra": false,
    "label_for_extra": null
  },
  {
    "index": 3,
    "q_type": "checkbox",
    "question_text": "What are your hobbies?",
    "options": [
      "dancing",
      "traveling",
      "singing"
    ],
    "is_extra": true,
    "label_for_extra": "Others hobbies"
  },
  {
    "index": 4,
    "q_type": "dropdown",
    "question_text": "What is your age group?",
    "options": [
      "belove 18",
      "18-25",
      "26-35",
      "35-55",
      "56-65",
      "65 and above"
    ],
    "is_extra": false,
    "label_for_extra": null
  }
]