[
  {
    "name": "Krishna Naik",
    "city": "Navsari"
  },
  {
    "name": "Chetan Shankar",
    "city": "Surat"
  },
  {
    "name": "Parth Lakhani",
    "city": "Surat"
  },
  {
    "name": "Dhruvi Raval",
    "city": "Surat"
  },
  {
    "name": "Seema Malkani",
    "city": "Navsari"
  }
]